
jsonFlickrApi({"photos":{"page":1,"pages":4,"perpage":100,"total":"335","photo":[{"id":"32160565175","owner":"134105539@N04","secret":"d5a7c6899c","server":"722","farm":1,"title":".. ding ...","ispublic":1,"isfriend":0,"isfamily":0},{"id":"29663656664","owner":"8755091@N07","secret":"bce18be9df","server":"8276","farm":9,"title":"Sunset on the Shun Tak Centre","ispublic":1,"isfriend":0,"isfamily":0},{"id":"29246121501","owner":"98403995@N08","secret":"45002cc386","server":"8477","farm":9,"title":"Hongkong - Streetlife - Tram - 15b","ispublic":1,"isfriend":0,"isfamily":0},{"id":"29213967232","owner":"98403995@N08","secret":"8c63bb9278","server":"7645","farm":8,"title":"Hongkong - Tram - 26b","ispublic":1,"isfriend":0,"isfamily":0},{"id":"28700904353","owner":"98403995@N08","secret":"b013bdf1cc","server":"8477","farm":9,"title":"Hongkong - Trams - 17b","ispublic":1,"isfriend":0,"isfamily":0},{"id":"29242812651","owner":"98403995@N08","secret":"f9f94fa6e0","server":"8009","farm":9,"title":"Hongkong - Tram - 12b","ispublic":1,"isfriend":0,"isfamily":0},{"id":"29032845260","owner":"98403995@N08","secret":"b41510ee5a","server":"8203","farm":9,"title":"Hongkong - Trams - 16b","ispublic":1,"isfriend":0,"isfamily":0},{"id":"29320587515","owner":"98403995@N08","secret":"ed8e9a78f3","server":"8379","farm":9,"title":"Hongkong - Trams - 10b","ispublic":1,"isfriend":0,"isfamily":0},{"id":"29032826890","owner":"98403995@N08","secret":"331d76e9ea","server":"8196","farm":9,"title":"Hongkong - Tramways - 11b","ispublic":1,"isfriend":0,"isfamily":0},{"id":"28882217300","owner":"63616996@N06","secret":"2ed77bf638","server":"8797","farm":9,"title":"Hong Kong","ispublic":1,"isfriend":0,"isfamily":0},{"id":"27895968613","owner":"100233774@N03","secret":"3148ef26a9","server":"8249","farm":9,"title":"My nanoblock exhibition in Shun Tak Centre, Hong Kong. It runs until Aug 21, 2016.","ispublic":1,"isfriend":0,"isfamily":0},{"id":"27895964993","owner":"100233774@N03","secret":"3c2a360d1b","server":"8844","farm":9,"title":"My nanoblock exhibition in Shun Tak Centre, Hong Kong. It runs until Aug 21, 2016.","ispublic":1,"isfriend":0,"isfamily":0},{"id":"28433679251","owner":"100233774@N03","secret":"7c7d832af1","server":"7787","farm":8,"title":"My nanoblock exhibition in Shun Tak Centre, Hong Kong. It runs until Aug 21, 2016.","ispublic":1,"isfriend":0,"isfamily":0},{"id":"28228107500","owner":"100233774@N03","secret":"cdf289b981","server":"8698","farm":9,"title":"My nanoblock exhibition in Shun Tak Centre, Hong Kong. It runs until Aug 21, 2016.","ispublic":1,"isfriend":0,"isfamily":0},{"id":"28433678071","owner":"100233774@N03","secret":"8c351b1367","server":"8561","farm":9,"title":"My nanoblock exhibition in Shun Tak Centre, Hong Kong. It runs until Aug 21, 2016.","ispublic":1,"isfriend":0,"isfamily":0},{"id":"28228106730","owner":"100233774@N03","secret":"6722479379","server":"8882","farm":9,"title":"My nanoblock exhibition in Shun Tak Centre, Hong Kong. It runs until Aug 21, 2016.","ispublic":1,"isfriend":0,"isfamily":0},{"id":"27895960223","owner":"100233774@N03","secret":"88bf1f269f","server":"8716","farm":9,"title":"My nanoblock exhibition in Shun Tak Centre, Hong Kong. It runs until Aug 21, 2016.","ispublic":1,"isfriend":0,"isfamily":0},{"id":"27895048814","owner":"100233774@N03","secret":"528f41f98e","server":"8829","farm":9,"title":"My nanoblock exhibition in Shun Tak Centre, Hong Kong. It runs until Aug 21, 2016.","ispublic":1,"isfriend":0,"isfamily":0},{"id":"28433671701","owner":"100233774@N03","secret":"bd787c9f54","server":"8205","farm":9,"title":"My nanoblock exhibition in Shun Tak Centre, Hong Kong. It runs until Aug 21, 2016.","ispublic":1,"isfriend":0,"isfamily":0},{"id":"28433669631","owner":"100233774@N03","secret":"11ed3039d7","server":"8850","farm":9,"title":"My nanoblock exhibition in Shun Tak Centre, Hong Kong. It runs until Aug 21, 2016.","ispublic":1,"isfriend":0,"isfamily":0},{"id":"28479566216","owner":"100233774@N03","secret":"1f341750d5","server":"8165","farm":9,"title":"My nanoblock exhibition in Shun Tak Centre, Hong Kong. It runs until Aug 21, 2016.","ispublic":1,"isfriend":0,"isfamily":0},{"id":"28406350892","owner":"100233774@N03","secret":"9745a00876","server":"8726","farm":9,"title":"My nanoblock exhibition in Shun Tak Centre, Hong Kong. It runs until Aug 21, 2016.","ispublic":1,"isfriend":0,"isfamily":0},{"id":"27895950553","owner":"100233774@N03","secret":"1ac0ef8a76","server":"7651","farm":8,"title":"My nanoblock exhibition in Shun Tak Centre, Hong Kong. It runs until Aug 21, 2016.","ispublic":1,"isfriend":0,"isfamily":0},{"id":"27895036034","owner":"100233774@N03","secret":"962ea5416c","server":"8726","farm":9,"title":"My nanoblock exhibition in Shun Tak Centre, Hong Kong. It runs until Aug 21, 2016.","ispublic":1,"isfriend":0,"isfamily":0},{"id":"28479557436","owner":"100233774@N03","secret":"a5c74420cc","server":"8835","farm":9,"title":"My nanoblock exhibition in Shun Tak Centre, Hong Kong. It runs until Aug 21, 2016.","ispublic":1,"isfriend":0,"isfamily":0},{"id":"28406344402","owner":"100233774@N03","secret":"cd996969c6","server":"8638","farm":9,"title":"My nanoblock exhibition in Shun Tak Centre, Hong Kong. It runs until Aug 21, 2016.","ispublic":1,"isfriend":0,"isfamily":0},{"id":"28433648831","owner":"100233774@N03","secret":"7a2156c71c","server":"7686","farm":8,"title":"My nanoblock exhibition in Shun Tak Centre, Hong Kong. It runs until Aug 21, 2016.","ispublic":1,"isfriend":0,"isfamily":0},{"id":"27895023444","owner":"100233774@N03","secret":"a3099d4c46","server":"8666","farm":9,"title":"My nanoblock exhibition in Shun Tak Centre, Hong Kong. It runs until Aug 21, 2016.","ispublic":1,"isfriend":0,"isfamily":0},{"id":"27895022164","owner":"100233774@N03","secret":"58ee03091f","server":"8751","farm":9,"title":"My nanoblock exhibition in Shun Tak Centre, Hong Kong. It runs until Aug 21, 2016.","ispublic":1,"isfriend":0,"isfamily":0},{"id":"28433644251","owner":"100233774@N03","secret":"6d36098731","server":"8702","farm":9,"title":"My nanoblock exhibition in Shun Tak Centre, Hong Kong. It runs until Aug 21, 2016.","ispublic":1,"isfriend":0,"isfamily":0},{"id":"28433641981","owner":"100233774@N03","secret":"a527cc3d57","server":"8360","farm":9,"title":"My nanoblock exhibition in Shun Tak Centre, Hong Kong. It runs until Aug 21, 2016.","ispublic":1,"isfriend":0,"isfamily":0},{"id":"28433637311","owner":"100233774@N03","secret":"bf2984582b","server":"8721","farm":9,"title":"My nanoblock exhibition in Shun Tak Centre, Hong Kong. It runs until Aug 21, 2016.","ispublic":1,"isfriend":0,"isfamily":0},{"id":"28433636801","owner":"100233774@N03","secret":"d61057f6e1","server":"8456","farm":9,"title":"My nanoblock exhibition in Shun Tak Centre, Hong Kong. It runs until Aug 21, 2016.","ispublic":1,"isfriend":0,"isfamily":0},{"id":"28479549666","owner":"100233774@N03","secret":"9f7889b606","server":"8821","farm":9,"title":"My nanoblock exhibition in Shun Tak Centre, Hong Kong. It runs until Aug 21, 2016.","ispublic":1,"isfriend":0,"isfamily":0},{"id":"28511335235","owner":"100233774@N03","secret":"5251039692","server":"8829","farm":9,"title":"My nanoblock exhibition in Shun Tak Centre, Hong Kong. It runs until Aug 21, 2016.","ispublic":1,"isfriend":0,"isfamily":0},{"id":"28228072670","owner":"100233774@N03","secret":"c1985757fd","server":"8821","farm":9,"title":"My nanoblock exhibition in Shun Tak Centre, Hong Kong. It runs until Aug 21, 2016.","ispublic":1,"isfriend":0,"isfamily":0},{"id":"27895922923","owner":"100233774@N03","secret":"ef05522430","server":"8283","farm":9,"title":"My nanoblock exhibition in Shun Tak Centre, Hong Kong. It runs until Aug 21, 2016.","ispublic":1,"isfriend":0,"isfamily":0},{"id":"28228068500","owner":"100233774@N03","secret":"412bf14c0e","server":"8851","farm":9,"title":"My nanoblock exhibition in Shun Tak Centre, Hong Kong. It runs until Aug 21, 2016.","ispublic":1,"isfriend":0,"isfamily":0},{"id":"27895005574","owner":"100233774@N03","secret":"36bdf0da5d","server":"8663","farm":9,"title":"My nanoblock exhibition in Shun Tak Centre, Hong Kong. It runs until Aug 21, 2016.","ispublic":1,"isfriend":0,"isfamily":0},{"id":"28406322822","owner":"100233774@N03","secret":"2a8f885a94","server":"8768","farm":9,"title":"My nanoblock exhibition in Shun Tak Centre, Hong Kong. It runs until Aug 21, 2016.","ispublic":1,"isfriend":0,"isfamily":0},{"id":"28511283845","owner":"100233774@N03","secret":"353e2e01cf","server":"8445","farm":9,"title":"My nanoblock Macau exhibition in Shun Tak Centre, Hong Kong =)","ispublic":1,"isfriend":0,"isfamily":0},{"id":"26022112976","owner":"134105539@N04","secret":"1e68b70d0c","server":"1444","farm":2,"title":"two tallest buildings","ispublic":1,"isfriend":0,"isfamily":0},{"id":"23929681019","owner":"52793080@N03","secret":"d30a111c0f","server":"1699","farm":2,"title":"Connaught Road Central","ispublic":1,"isfriend":0,"isfamily":0},{"id":"21127015769","owner":"125840100@N05","secret":"e7de9bf741","server":"759","farm":1,"title":"Sheung Wan Rush Hour #2, Hong Kong","ispublic":1,"isfriend":0,"isfamily":0},{"id":"19594065764","owner":"86354760@N00","secret":"5c661eef65","server":"350","farm":1,"title":"Unoccupied 04","ispublic":1,"isfriend":0,"isfamily":0},{"id":"18722765370","owner":"92063140@N00","secret":"a711d5578d","server":"3722","farm":4,"title":"20130524IMG_1387","ispublic":1,"isfriend":0,"isfamily":0},{"id":"17764411446","owner":"37223318@N08","secret":"e6c8a78896","server":"5448","farm":6,"title":"Shun Tak Centre","ispublic":1,"isfriend":0,"isfamily":0},{"id":"16936599062","owner":"26250980@N02","secret":"682d3be767","server":"7610","farm":8,"title":"HK15_AdmCtrlShW_180","ispublic":1,"isfriend":0,"isfamily":0},{"id":"16660850201","owner":"130829918@N07","secret":"54c53df23f","server":"8633","farm":9,"title":"Central Hong Kong","ispublic":1,"isfriend":0,"isfamily":0},{"id":"16042315393","owner":"130829918@N07","secret":"51934b661b","server":"8678","farm":9,"title":"Central Hong Kong","ispublic":1,"isfriend":0,"isfamily":0},{"id":"15614168689","owner":"125619453@N06","secret":"0c76a9db27","server":"7545","farm":8,"title":"Ferry Terminal","ispublic":1,"isfriend":0,"isfamily":0},{"id":"15061063883","owner":"128948736@N05","secret":"2738b96a88","server":"7499","farm":8,"title":"Shun Tak Centre HDR","ispublic":1,"isfriend":0,"isfamily":0},{"id":"15617926971","owner":"16985740@N03","secret":"2f49699b5a","server":"3942","farm":4,"title":"Hong Kong - Shun Tak Centre","ispublic":1,"isfriend":0,"isfamily":0},{"id":"15600278195","owner":"10990075@N03","secret":"27d16665fd","server":"3934","farm":4,"title":"Hongkong","ispublic":1,"isfriend":0,"isfamily":0},{"id":"15433728026","owner":"112531236@N07","secret":"3de0e04519","server":"3934","farm":4,"title":"Hong Kong & Macau ferry terminal","ispublic":1,"isfriend":0,"isfamily":0},{"id":"14547322158","owner":"31055337@N07","secret":"6b7b9f6d9f","server":"5581","farm":6,"title":"Shun Tak Centre, China Merchants Tower and West Tower- Hong Kong Island.","ispublic":1,"isfriend":0,"isfamily":0},{"id":"14409553772","owner":"30282876@N00","secret":"96d2143990","server":"2922","farm":3,"title":"SHUN TAK CENTRE - OFFICES 7 MACAU FERRY PIER 2","ispublic":1,"isfriend":0,"isfamily":0},{"id":"14216149068","owner":"66703290@N06","secret":"c4b8b4cd65","server":"3888","farm":4,"title":"Shun tak center, hk , macau macau tower.. :D","ispublic":1,"isfriend":0,"isfamily":0},{"id":"14422942143","owner":"66703290@N06","secret":"e96e6b96b3","server":"3847","farm":4,"title":"Shun tak center, hk , macau macau tower.. :D","ispublic":1,"isfriend":0,"isfamily":0},{"id":"14216168580","owner":"66703290@N06","secret":"17537e861f","server":"5576","farm":6,"title":"Shun tak center, hk , macau macau tower.. :D","ispublic":1,"isfriend":0,"isfamily":0},{"id":"14401415882","owner":"66703290@N06","secret":"0924f06011","server":"3835","farm":4,"title":"Shun tak center, hk , macau macau tower.. :D","ispublic":1,"isfriend":0,"isfamily":0},{"id":"14401411142","owner":"66703290@N06","secret":"afa037220b","server":"2936","farm":3,"title":"Shun tak center, hk , macau macau tower.. :D","ispublic":1,"isfriend":0,"isfamily":0},{"id":"14422923253","owner":"66703290@N06","secret":"8ab015ca21","server":"3868","farm":4,"title":"Shun tak center, hk , macau macau tower.. :D","ispublic":1,"isfriend":0,"isfamily":0},{"id":"14402753065","owner":"66703290@N06","secret":"41be513830","server":"3878","farm":4,"title":"Shun tak center, hk , macau macau tower.. :D","ispublic":1,"isfriend":0,"isfamily":0},{"id":"14401636304","owner":"66703290@N06","secret":"04c36ffbf4","server":"3889","farm":4,"title":"Shun tak center, hk , macau macau tower.. :D","ispublic":1,"isfriend":0,"isfamily":0},{"id":"14401387832","owner":"66703290@N06","secret":"c71b51da1b","server":"2920","farm":3,"title":"Shun tak center, hk , macau macau tower.. :D","ispublic":1,"isfriend":0,"isfamily":0},{"id":"14402737555","owner":"66703290@N06","secret":"001dbe3e21","server":"3926","farm":4,"title":"Shun tak center, hk , macau macau tower.. :D","ispublic":1,"isfriend":0,"isfamily":0},{"id":"14401619594","owner":"66703290@N06","secret":"3ba9a23f5c","server":"3865","farm":4,"title":"Shun tak center, hk , macau macau tower.. :D","ispublic":1,"isfriend":0,"isfamily":0},{"id":"14216069199","owner":"66703290@N06","secret":"525cf708ac","server":"3885","farm":4,"title":"Shun tak center, hk , macau macau tower.. :D","ispublic":1,"isfriend":0,"isfamily":0},{"id":"14422873693","owner":"66703290@N06","secret":"759f4dc8c7","server":"2936","farm":3,"title":"Shun tak center, hk , macau macau tower.. :D","ispublic":1,"isfriend":0,"isfamily":0},{"id":"14379568786","owner":"66703290@N06","secret":"27b45bcc91","server":"3841","farm":4,"title":"Shun tak center, hk , macau macau tower.. :D","ispublic":1,"isfriend":0,"isfamily":0},{"id":"14379564046","owner":"66703290@N06","secret":"9971332093","server":"5316","farm":6,"title":"Shun tak center, hk , macau macau tower.. :D","ispublic":1,"isfriend":0,"isfamily":0},{"id":"14216059778","owner":"66703290@N06","secret":"fc592a33b3","server":"2907","farm":3,"title":"Shun tak center, hk , macau macau tower.. :D","ispublic":1,"isfriend":0,"isfamily":0},{"id":"14422843403","owner":"66703290@N06","secret":"5d8c1bf825","server":"3881","farm":4,"title":"Shun tak center, hk , macau macau tower.. :D","ispublic":1,"isfriend":0,"isfamily":0},{"id":"14216057620","owner":"66703290@N06","secret":"8db02f47c9","server":"3925","farm":4,"title":"Shun tak center, hk , macau macau tower.. :D","ispublic":1,"isfriend":0,"isfamily":0},{"id":"14215985389","owner":"66703290@N06","secret":"e9745f34a3","server":"5543","farm":6,"title":"Shun tak center, hk , macau macau tower.. :D","ispublic":1,"isfriend":0,"isfamily":0},{"id":"14216180407","owner":"66703290@N06","secret":"9c7fc0f10e","server":"3890","farm":4,"title":"Shun tak center, hk , macau macau tower.. :D","ispublic":1,"isfriend":0,"isfamily":0},{"id":"14379480756","owner":"66703290@N06","secret":"ca5ec57da6","server":"2929","farm":3,"title":"Shun tak center, hk , macau macau tower.. :D","ispublic":1,"isfriend":0,"isfamily":0},{"id":"14402606645","owner":"66703290@N06","secret":"a072c28f90","server":"3895","farm":4,"title":"Shun tak center, hk , macau macau tower.. :D","ispublic":1,"isfriend":0,"isfamily":0},{"id":"14379469316","owner":"66703290@N06","secret":"f127f72f09","server":"3922","farm":4,"title":"Shun tak center, hk , macau macau tower.. :D","ispublic":1,"isfriend":0,"isfamily":0},{"id":"14402595735","owner":"66703290@N06","secret":"6478d29ab6","server":"2920","farm":3,"title":"Shun tak center, hk , macau macau tower.. :D","ispublic":1,"isfriend":0,"isfamily":0},{"id":"14215962748","owner":"66703290@N06","secret":"0cc85b47e0","server":"5596","farm":6,"title":"Shun tak center, hk , macau macau tower.. :D","ispublic":1,"isfriend":0,"isfamily":0},{"id":"14215917579","owner":"66703290@N06","secret":"1c8a5d620c","server":"3891","farm":4,"title":"Shun tak center, hk , macau macau tower.. :D","ispublic":1,"isfriend":0,"isfamily":0},{"id":"14399200191","owner":"66703290@N06","secret":"1eee5be579","server":"3879","farm":4,"title":"Shun tak center, hk , macau macau tower.. :D","ispublic":1,"isfriend":0,"isfamily":0},{"id":"14401205422","owner":"66703290@N06","secret":"1c53834d5c","server":"2904","farm":3,"title":"Shun tak center, hk , macau macau tower.. :D","ispublic":1,"isfriend":0,"isfamily":0},{"id":"14216104637","owner":"66703290@N06","secret":"82ef496083","server":"3860","farm":4,"title":"Shun tak center, hk , macau macau tower.. :D","ispublic":1,"isfriend":0,"isfamily":0},{"id":"14215855159","owner":"66703290@N06","secret":"784f1019a8","server":"3870","farm":4,"title":"Shun tak center, hk , macau macau tower.. :D","ispublic":1,"isfriend":0,"isfamily":0},{"id":"14215844640","owner":"66703290@N06","secret":"9594bc6ef1","server":"5521","farm":6,"title":"Shun tak center, hk , macau macau tower.. :D","ispublic":1,"isfriend":0,"isfamily":0},{"id":"14401073982","owner":"66703290@N06","secret":"e7562aac49","server":"2902","farm":3,"title":"Shun tak center, hk , macau macau tower.. :D","ispublic":1,"isfriend":0,"isfamily":0},{"id":"14215729839","owner":"66703290@N06","secret":"e73e1fca3a","server":"3865","farm":4,"title":"Shun tak center, hk , macau macau tower.. :D","ispublic":1,"isfriend":0,"isfamily":0},{"id":"14400953692","owner":"66703290@N06","secret":"d879da4412","server":"2933","farm":3,"title":"Shun tak center, hk , macau macau tower.. :D","ispublic":1,"isfriend":0,"isfamily":0},{"id":"14337891563","owner":"110183973@N05","secret":"59f04ea34e","server":"3675","farm":4,"title":"\u5c71\u9802\u76e7\u5409\u9053\u7dad\u6e2f\u666f\u82721967\u5e7411\u6708","ispublic":1,"isfriend":0,"isfamily":0},{"id":"14031364417","owner":"61259748@N06","secret":"abfb8f7a33","server":"2897","farm":3,"title":"Shun Tak Centre","ispublic":1,"isfriend":0,"isfamily":0},{"id":"12997849124","owner":"66979281@N00","secret":"d9c6d04814","server":"3055","farm":4,"title":"McDonald's Hong Kong 200 Connaught Road Shun Tak Centre (Hong Kong)","ispublic":1,"isfriend":0,"isfamily":0},{"id":"12514146815","owner":"51073972@N02","secret":"47f615c72a","server":"3793","farm":4,"title":"14\/2\/2014 Traditional costume in red","ispublic":1,"isfriend":0,"isfamily":0},{"id":"12260308615","owner":"10990075@N03","secret":"8b671a25db","server":"7320","farm":8,"title":"Hongkong","ispublic":1,"isfriend":0,"isfamily":0},{"id":"12011795454","owner":"110183973@N05","secret":"34111bbdd0","server":"3728","farm":4,"title":"\u5c71\u9802\u76e7\u5409\u9053\u7dad\u6e2f\u666f\u82721994\u5e74","ispublic":1,"isfriend":0,"isfamily":0},{"id":"11706574004","owner":"65585473@N04","secret":"42f1f01c39","server":"7319","farm":8,"title":"800px-HK_Sheung_Wan_Shun_Tak_Centre_C%23%FD%F8_Genki_Sushi_restaurant_interior_visitors_June-2012","ispublic":1,"isfriend":0,"isfamily":0},{"id":"11375531375","owner":"66116956@N00","secret":"d53bb8d53c","server":"3747","farm":4,"title":"real location of Hong Kong movie  Internal Affair","ispublic":1,"isfriend":0,"isfamily":0}]},"stat":"ok"})
